<?xml version="1.0" encoding="utf-8"?>
<!-- Generator: Adobe Illustrator 21.0.0, SVG Export Plug-In . SVG Version: 6.00 Build 0)  -->
<svg version="1.1" id="Layer_1" xmlns="http://www.w3.org/2000/svg" xmlns:xlink="http://www.w3.org/1999/xlink" x="0px" y="0px"
	 viewBox="0 0 200 200" style="enable-background:new 0 0 200 200;" xml:space="preserve">
<style type="text/css">
	.st0{fill:url(#SVGID_1_);}
	.st1{fill:url(#SVGID_2_);}
	.st2{fill:url(#SVGID_3_);}
	.st3{fill:url(#SVGID_4_);}
	.st4{fill:url(#SVGID_5_);}
	.st5{fill:url(#SVGID_6_);}
</style>
<g>
	<linearGradient id="SVGID_1_" gradientUnits="userSpaceOnUse" x1="27.7702" y1="197.3158" x2="184.7134" y2="-17.1995">
		<stop  offset="0" style="stop-color:#2D52FF"/>
		<stop  offset="1" style="stop-color:#2DA4FF"/>
	</linearGradient>
	<path class="st0" d="M189,101.2c3.6,3.8,5.9,8,6.4,13.1c1,9.6-4.9,18.5-14,21.6c-1.3,0.4-2.7,1.6-3.4,2.7
		c-3.9,6.3-7.2,13.1-11.5,19.1c-20.7,28.2-48.7,40.9-83.5,38c-5.5-0.5-10.9-2.2-16.4-3.3c-1.3-0.2-3-0.3-4.2,0.2
		c-10,4.2-21.2,0.3-26.4-9.2c-0.6-1.1-1.7-2.2-2.9-2.7c-15.9-6.6-25.4-18.3-28-35.2c-0.7-4.2,0.1-8.7,0.1-13.1
		c0-1.8,0.3-3.7-0.1-5.4c-9.1-39.2,8.3-79.3,43.3-99.2c1.6-0.9,2.4-1.9,3-3.7c2.4-7.5,10-11.8,17.9-9.9c1.8,0.4,2.9,0.1,4.2-1
		C83.9,4.3,96.3-0.4,110.2,0c20.5,0.7,36.1,10,46.6,27.6c2.4,4,5.3,6.6,10,7.9c27.6,7.6,39.3,39.6,23.6,63.4
		C190,99.7,189.5,100.3,189,101.2z M92.6,23.7c-45.3,0-82.4,36.9-82.4,82.1c0,45.8,36.7,82.8,82.2,82.8
		c45.8,0.1,82.8-36.8,82.7-82.6C175.1,60.7,138.1,23.7,92.6,23.7z"/>
	<linearGradient id="SVGID_2_" gradientUnits="userSpaceOnUse" x1="166.6357" y1="24.4067" x2="178.5436" y2="24.4067">
		<stop  offset="0" style="stop-color:#2D52FF"/>
		<stop  offset="1" style="stop-color:#2DA4FF"/>
	</linearGradient>
	<path class="st1" d="M178.5,24.4c0,3.5-2.4,6-5.9,5.9c-3.3,0-6-2.7-6-6c0.1-3.1,2.9-5.9,5.9-6C175.9,18.4,178.5,21,178.5,24.4z"/>
	<linearGradient id="SVGID_3_" gradientUnits="userSpaceOnUse" x1="164.0093" y1="13.3649" x2="169.6024" y2="13.3649">
		<stop  offset="0" style="stop-color:#2D52FF"/>
		<stop  offset="1" style="stop-color:#2DA4FF"/>
	</linearGradient>
	<path class="st2" d="M169.6,13.4c0,1.6-1.1,2.8-2.8,2.8c-1.6,0-2.8-1.3-2.8-2.8c0-1.4,1.4-2.8,2.8-2.8
		C168.3,10.5,169.6,11.8,169.6,13.4z"/>
	<linearGradient id="SVGID_4_" gradientUnits="userSpaceOnUse" x1="154.5449" y1="3.9005" x2="158.0348" y2="3.9005">
		<stop  offset="0" style="stop-color:#2D52FF"/>
		<stop  offset="1" style="stop-color:#2DA4FF"/>
	</linearGradient>
	<path class="st3" d="M158,3.9c0,1-0.7,1.7-1.7,1.7c-1,0-1.8-0.8-1.8-1.8c0-0.9,0.8-1.7,1.7-1.7C157.2,2.1,158,2.9,158,3.9z"/>
	<linearGradient id="SVGID_5_" gradientUnits="userSpaceOnUse" x1="33.1193" y1="195.9649" x2="41.1527" y2="195.9649">
		<stop  offset="0" style="stop-color:#2D52FF"/>
		<stop  offset="1" style="stop-color:#2DA4FF"/>
	</linearGradient>
	<path class="st4" d="M36.9,200c-2.1-0.1-4-2.2-3.8-4.2c0.2-2,2.3-3.9,4.3-3.8c2.1,0.2,3.9,2.2,3.7,4.3
		C41,198.4,39.1,200.1,36.9,200z"/>
	<linearGradient id="SVGID_6_" gradientUnits="userSpaceOnUse" x1="25.0776" y1="188.6037" x2="30.2656" y2="188.6037">
		<stop  offset="0" style="stop-color:#2D52FF"/>
		<stop  offset="1" style="stop-color:#2DA4FF"/>
	</linearGradient>
	<path class="st5" d="M27.5,191.2c-1.4-0.1-2.6-1.4-2.4-2.7c0.1-1.3,1.5-2.6,2.8-2.5c1.4,0.1,2.5,1.4,2.4,2.8
		C30.2,190.2,28.9,191.3,27.5,191.2z"/>
</g>
</svg>
