<?xml version="1.0" encoding="utf-8"?>
<!-- Generator: Adobe Illustrator 21.0.0, SVG Export Plug-In . SVG Version: 6.00 Build 0)  -->
<svg version="1.1" id="Layer_1" xmlns="http://www.w3.org/2000/svg" xmlns:xlink="http://www.w3.org/1999/xlink" x="0px" y="0px"
	 viewBox="0 0 15 15" style="enable-background:new 0 0 15 15;" xml:space="preserve">
<style type="text/css">
	.st0{fill:#00AFEF;}
</style>
<path class="st0" d="M13.8,6.4H6.4H5.6H1.2c-0.6,0-1.1,0.5-1.1,1.1s0.5,1.1,1.1,1.1h4.4h0.9h7.4c0.6,0,1.1-0.5,1.1-1.1
	S14.4,6.4,13.8,6.4z"/>
</svg>
