<?xml version="1.0" encoding="utf-8"?>
<!-- Generator: Adobe Illustrator 21.0.0, SVG Export Plug-In . SVG Version: 6.00 Build 0)  -->
<svg version="1.1" id="Layer_1" xmlns="http://www.w3.org/2000/svg" xmlns:xlink="http://www.w3.org/1999/xlink" x="0px" y="0px"
	 viewBox="0 0 15 15" style="enable-background:new 0 0 15 15;" xml:space="preserve">
<style type="text/css">
	.st0{fill:#00AFEF;}
</style>
<path class="st0" d="M15,7.5c0,0.6-0.5,1.1-1.1,1.1H8.6v5.3c0,0.6-0.5,1.1-1.1,1.1s-1.1-0.5-1.1-1.1V8.6H1.1C0.5,8.6,0,8.1,0,7.5
	s0.5-1.1,1.1-1.1h5.3V1.1C6.4,0.5,6.9,0,7.5,0s1.1,0.5,1.1,1.1v5.3h5.3C14.5,6.4,15,6.9,15,7.5z"/>
</svg>
