<?xml version="1.0" encoding="utf-8"?>
<!-- Generator: Adobe Illustrator 21.0.0, SVG Export Plug-In . SVG Version: 6.00 Build 0)  -->
<svg version="1.1" id="Layer_1" xmlns="http://www.w3.org/2000/svg" xmlns:xlink="http://www.w3.org/1999/xlink" x="0px" y="0px"
	 viewBox="0 0 243 78" style="enable-background:new 0 0 243 78;" xml:space="preserve">
<style type="text/css">
	.st0{fill:#81C000;}
	.st1{fill:#507805;}
</style>
<g>
	<path class="st0" d="M224,59c0,0-71.5,19-102.2,19C97.4,78,18,58,18,58V0h206V59z"/>
	<polygon class="st1" points="224,0 224,14 240.9,14 	"/>
	<polygon class="st1" points="18,0 18,14 1.1,14 	"/>
</g>
</svg>
