<?xml version="1.0" encoding="utf-8"?>
<!-- Generator: Adobe Illustrator 23.0.6, SVG Export Plug-In . SVG Version: 6.00 Build 0)  -->
<svg version="1.1" id="Layer_1" xmlns="http://www.w3.org/2000/svg" xmlns:xlink="http://www.w3.org/1999/xlink" x="0px" y="0px"
	 viewBox="0 0 20 20" style="enable-background:new 0 0 20 20;" xml:space="preserve">
<style type="text/css">
	.st0{fill:#FFFFFF;}
</style>
<path class="st0" d="M16.56,4.98c-0.07-0.27-0.22-0.55-0.32-0.8c-1.28-3.07-4.07-4.17-6.33-4.17c-3.02,0-6.35,2.03-6.79,6.2v0.85
	c0,0.04,0.01,0.36,0.03,0.52c0.25,1.99,1.82,4.1,2.99,6.09C7.4,15.8,8.71,17.9,10,19.99c0.8-1.37,1.6-2.75,2.38-4.09
	c0.21-0.39,0.46-0.78,0.67-1.15c0.14-0.25,0.41-0.5,0.54-0.73c1.26-2.31,3.29-4.64,3.29-6.93V6.15C16.88,5.91,16.58,5.04,16.56,4.98
	z M9.96,9.26c-0.89,0-1.86-0.44-2.34-1.67C7.55,7.4,7.56,7.01,7.56,6.97V6.42c0-1.56,1.33-2.27,2.48-2.27
	c1.42,0,2.52,1.14,2.52,2.56C12.56,8.13,11.38,9.26,9.96,9.26z"/>
</svg>
