<?xml version="1.0" encoding="utf-8"?>
<!-- Generator: Adobe Illustrator 23.0.6, SVG Export Plug-In . SVG Version: 6.00 Build 0)  -->
<svg version="1.1" id="Layer_1" xmlns="http://www.w3.org/2000/svg" xmlns:xlink="http://www.w3.org/1999/xlink" x="0px" y="0px"
	 viewBox="0 0 18 18" style="enable-background:new 0 0 18 18;" xml:space="preserve">
<style type="text/css">
	.st0{fill:#FFFFFF;}
</style>
<path class="st0" d="M17.9,5.3c0,0.2-0.1,0.3-0.2,0.4L9.4,14c-0.1,0.1-0.3,0.2-0.4,0.2s-0.3,0-0.4-0.2L0.2,5.7
	C0.1,5.6,0.1,5.4,0.1,5.3c0-0.2,0.1-0.3,0.2-0.4L1.1,4c0.1-0.1,0.3-0.2,0.4-0.2S1.8,3.8,2,4l7,7l7-7c0.1-0.1,0.3-0.2,0.4-0.2
	c0.2,0,0.3,0.1,0.4,0.2l0.9,0.9C17.9,5,17.9,5.1,17.9,5.3z"/>
</svg>
