<?xml version="1.0" encoding="utf-8"?>
<!-- Generator: Adobe Illustrator 21.0.0, SVG Export Plug-In . SVG Version: 6.00 Build 0)  -->
<svg version="1.1" id="Layer_1" xmlns="http://www.w3.org/2000/svg" xmlns:xlink="http://www.w3.org/1999/xlink" x="0px" y="0px"
	 viewBox="0 0 10 15" style="enable-background:new 0 0 10 15;" xml:space="preserve">
<style type="text/css">
	.st0{fill:#FFFFFF;}
</style>
<path class="st0" d="M0.9,5.7L0.1,4.9L5,0l4.9,4.9L9.1,5.7L5,1.6L0.9,5.7z M5,13.4L0.9,9.3l-0.8,0.8L5,15l4.9-4.9L9.1,9.3L5,13.4z"
	/>
</svg>
